Account number,Address,Total
"086 0771 900","BELGRAVIA HEALTH & LEISURE","",
"086 0771 900","20 LONGSTAFF RD",,
,"BAYSWATER VIC 3153",,
,"BELGRAVIA HEALTH & LEISURE",,
,"20 LONGSTAFF RD",,
,"BAYSWATER VIC 3153",,
