Account number,Bill number,Address,Pay immediately,Internet
"086 0771 900","P 191 945 651-1","BELGRAVIA HEALTH & LEISURE","",,
"086 0771 900","P 191 945 651-1","20 LONGSTAFF RD",,,
,,"BAYSWATER VIC 3153",,,
,,"BELGRAVIA HEALTH & LEISURE",,,
,,"20 LONGSTAFF RD",,,
,,"BAYSWATER VIC 3153",,,
